{
  "editor": [
    {
      "icon": "",
      "key": "settings",
      "header": "Portfolio Settings",
      "disabled": false,
      "fields": [
        {
          "key": "bgImg",
          "header": "Portfolio Background",
          "type": "image"
        },
        {
          "key": "profileImg",
          "header": "Profile Image",
          "type": "image"
        },
        {
          "key": "profileName",
          "header": "Profile Name",
          "type": "text"
        },
        {
          "key": "profileDesc",
          "header": "Profile Description",
          "type": "text"
        },
        {
          "key": "socialLinks",
          "header": "Social Links",
          "type": "array",
          "fields": [
            {
              "key": "platform1",
              "header": "Platform 1",
              "type": "array",
              "fields": [
                {
                  "key": "platform",
                  "header": "Social Platform",
                  "type": "text"
                },
                {
                  "key": "platformLink",
                  "header": "Social Platform Link",
                  "type": "text"
                },
                {
                  "key": "order",
                  "header": "Order of Placement",
                  "type": "number"
                },
                {
                  "key": "platformImg",
                  "header": "Platform Image",
                  "type": "image"
                }
              ]
            },
            {
              "key": "platform2",
              "header": "Platform 2",
              "type": "array",
              "fields": [
                {
                  "key": "platform",
                  "header": "Social Platform",
                  "type": "text"
                },
                {
                  "key": "platformLink",
                  "header": "Social Platform Link",
                  "type": "url"
                },
                {
                  "key": "order",
                  "header": "Order of Placement",
                  "type": "number"
                },
                {
                  "key": "platformImg",
                  "header": "Platform Image",
                  "type": "image"
                }
              ]
            },
            {
              "key": "platform3",
              "header": "Platform 3",
              "type": "array",
              "fields": [
                {
                  "key": "platform",
                  "header": "Social Platform",
                  "type": "text"
                },
                {
                  "key": "platformLink",
                  "header": "Social Platform Link",
                  "type": "url"
                },
                {
                  "key": "order",
                  "header": "Order of Placement",
                  "type": "number"
                },
                {
                  "key": "platformImg",
                  "header": "Platform Image",
                  "type": "image"
                }
              ]
            }
          ]
        },
        {
          "key": "customLinks",
          "header": "Custom Links",
          "type": "array",
          "fields": [
            {
              "key": "customLink1",
              "header": "Custom Link 1",
              "type": "array",
              "fields": [
                {
                  "key": "linkImg",
                  "header": "Link Image",
                  "type": "image"
                },
                {
                  "key": "linkUrl",
                  "header": "Link Url",
                  "type": "url"
                },
                {
                  "key": "linkDesc",
                  "header": "Link Description",
                  "type": "text"
                }
              ]
            },
            {
              "key": "customLink2",
              "header": "Custom Link 2",
              "type": "array",
              "fields": [
                {
                  "key": "linkImg",
                  "header": "Link Image",
                  "type": "image"
                },
                {
                  "key": "linkUrl",
                  "header": "Link Url",
                  "type": "url"
                },
                {
                  "key": "linkDesc",
                  "header": "Link Description",
                  "type": "text"
                }
              ]
            },
            {
              "key": "customLink3",
              "header": "Custom Link 3",
              "type": "array",
              "fields": [
                {
                  "key": "linkImg",
                  "header": "Link Image",
                  "type": "image"
                },
                {
                  "key": "linkUrl",
                  "header": "Link Url",
                  "type": "url"
                },
                {
                  "key": "linkDesc",
                  "header": "Link Description",
                  "type": "text"
                }
              ]
            }
          ]
        },
        {
          "key": "borderClr",
          "header": "border color",
          "type": "color"
        },
        {
          "key": "transparency",
          "header": "Transparency",
          "type": "boolean"
        },
        {
          "key": "rowClr",
          "header": "Row Color",
          "type": "color"
        }
      ]
    }
  ],
  "config": {
    "settings": {
      "bgImg": "./assets/Carmine-De-Fazio.jpg",
      "profileImg": "./assets/hacker.png",
      "profileName": "@Awesome_Hacker",
      "profileDesc": "I am an Awesome Hacker",
      "socialLinks": {
        "platform1": {
          "platform": "facebook",
          "platformLink": "https://www.facebook.com",
          "order": "2",
          "platformImg": "./assets/facebook.png"
        },
        "platform2": {
          "platform": "github",
          "platformLink": "https://www.github.com",
          "order": "1",
          "platformImg": "./assets/github.png"
        },
        "platform3": {
          "platform": "youtube",
          "platformLink": "https://www.youtube.com",
          "order": "3",
          "platformImg": "./assets/youtube.png"
        }
      },
      "customLinks": {
        "customLink1": {
          "linkImg": "./assets/Colorful-Plait-Background.jpg",
          "linkUrl": "https://www.github.com",
          "linkDesc": "Lorem Ipsum"
        },
        "customLink2": {
          "linkImg": "./assets/Colorful-Plait-Background.jpg",
          "linkUrl": "https://www.youtube.com",
          "linkDesc": "Lorem Ipsum"
        },
        "customLink3": {
          "linkImg": "./assets/Colorful-Plait-Background.jpg",
          "linkUrl": "https://www.facebook.com",
          "linkDesc": "Lorem Ipsum"
        }
      },
      "borderClr": "#000000",
      "transparency": false,
      "rowClr": "rgba(41, 38, 38, 0.897)"
    }
  }
}
